{
	"authors": [
		"Moyo"
	],
	"copyright": "Copyright © 2019, Moyo",
	"description": "A minimal D application.",
	"license": "proprietary",
	"dependencies": {
    "vibe-d:http": "*",
    "vibe-d:mongodb": "*"
    },
	"name": "way-for-pay-invoice"
}